<svg width="23" height="23" viewBox="0 0 23 23" fill="none" xmlns="http://www.w3.org/2000/svg">
<path d="M2.73438 0.28125C2.02539 0.28125 1.41309 0.539062 0.897461 1.05469C0.40332 1.54883 0.15625 2.15039 0.15625 2.85938V20.3906C0.15625 21.0996 0.40332 21.7119 0.897461 22.2275C1.41309 22.7217 2.02539 22.9688 2.73438 22.9688H20.2656C20.9746 22.9688 21.5762 22.7217 22.0703 22.2275C22.5859 21.7119 22.8438 21.0996 22.8438 20.3906V2.85938C22.8438 2.15039 22.5859 1.54883 22.0703 1.05469C21.5762 0.539062 20.9746 0.28125 20.2656 0.28125H2.73438ZM2.73438 2.34375H20.2656C20.416 2.34375 20.5342 2.39746 20.6201 2.50488C20.7275 2.59082 20.7812 2.70898 20.7812 2.85938V20.3906C20.7812 20.541 20.7275 20.6699 20.6201 20.7773C20.5342 20.8633 20.416 20.9062 20.2656 20.9062H2.73438C2.58398 20.9062 2.45508 20.8633 2.34766 20.7773C2.26172 20.6699 2.21875 20.541 2.21875 20.3906V2.85938C2.21875 2.70898 2.26172 2.59082 2.34766 2.50488C2.45508 2.39746 2.58398 2.34375 2.73438 2.34375ZM5.76367 4.11621C5.26953 4.11621 4.85059 4.28809 4.50684 4.63184C4.16309 4.97559 3.99121 5.39453 3.99121 5.88867C3.99121 6.38281 4.16309 6.80176 4.50684 7.14551C4.85059 7.48926 5.26953 7.66113 5.76367 7.66113C6.25781 7.66113 6.67676 7.48926 7.02051 7.14551C7.36426 6.80176 7.53613 6.38281 7.53613 5.88867C7.53613 5.39453 7.36426 4.97559 7.02051 4.63184C6.67676 4.28809 6.25781 4.11621 5.76367 4.11621ZM15.0771 8.82129C14.3896 8.82129 13.7773 8.99316 13.2402 9.33691C12.7891 9.61621 12.4453 9.9707 12.209 10.4004H12.1445V9.04688H9.24414V18.8438H12.2734V14.0098C12.2734 13.2363 12.3809 12.6562 12.5957 12.2695C12.8965 11.7539 13.3906 11.4961 14.0781 11.4961C14.7871 11.4961 15.2598 11.7861 15.4961 12.3662C15.625 12.71 15.6895 13.2793 15.6895 14.0742V18.8438H18.7188V13.4619C18.7188 11.958 18.4932 10.8516 18.042 10.1426C17.4834 9.26172 16.4951 8.82129 15.0771 8.82129ZM4.28125 9.04688V18.8438H7.34277V9.04688H4.28125Z" fill="#230200"/>
</svg>
