<svg width="1872" height="586" viewBox="0 0 1872 586" fill="none" xmlns="http://www.w3.org/2000/svg">
<g style="mix-blend-mode:darken">
<path d="M114.018 823.389C1315.35 626.26 691.752 100.665 2071.15 48.0941" stroke="#BB7F2B" stroke-width="262"/>
</g>
</svg>