<svg width="1920" height="701" viewBox="0 0 1920 701" fill="none" xmlns="http://www.w3.org/2000/svg">
<g style="mix-blend-mode:darken">
<path d="M2044 -62C754 -62 1272 742 -188 536" stroke="#BB7F2B" stroke-width="262"/>
</g>
</svg>