<svg width="36" height="32" viewBox="0 0 36 32" fill="none" xmlns="http://www.w3.org/2000/svg">
<path d="M15.375 0.9375C13.9395 0.9375 12.75 2.12695 12.75 3.5625V4.875H8.8125V3.5625H6.1875V4.875H3.5625C2.12695 4.875 0.9375 6.06445 0.9375 7.5V28.5C0.9375 29.9355 2.12695 31.125 3.5625 31.125H32.4375C33.873 31.125 35.0625 29.9355 35.0625 28.5V7.5C35.0625 6.06445 33.873 4.875 32.4375 4.875H29.8125V3.5625H27.1875V4.875H23.25V3.5625C23.25 2.12695 22.0605 0.9375 20.625 0.9375H15.375ZM15.375 3.5625H20.625V4.875H15.375V3.5625ZM3.5625 7.5H32.4375V28.5H29.8125V8.8125H27.1875V28.5H8.8125V8.8125H6.1875V28.5H3.5625V7.5Z" fill="#7C5B27"/>
</svg>
