<svg width="40" height="28" viewBox="0 0 40 28" fill="none" xmlns="http://www.w3.org/2000/svg">
<path d="M13.8125 0.25C11.1699 0.25 9 2.41992 9 5.0625C9 7.70508 11.1699 9.875 13.8125 9.875C16.4551 9.875 18.625 7.70508 18.625 5.0625C18.625 2.41992 16.4551 0.25 13.8125 0.25ZM26.1875 0.25C23.5449 0.25 21.375 2.41992 21.375 5.0625C21.375 7.70508 23.5449 9.875 26.1875 9.875C28.8301 9.875 31 7.70508 31 5.0625C31 2.41992 28.8301 0.25 26.1875 0.25ZM13.8125 3C14.9673 3 15.875 3.90771 15.875 5.0625C15.875 6.21729 14.9673 7.125 13.8125 7.125C12.6577 7.125 11.75 6.21729 11.75 5.0625C11.75 3.90771 12.6577 3 13.8125 3ZM26.1875 3C27.3423 3 28.25 3.90771 28.25 5.0625C28.25 6.21729 27.3423 7.125 26.1875 7.125C25.0327 7.125 24.125 6.21729 24.125 5.0625C24.125 3.90771 25.0327 3 26.1875 3ZM7.625 8.5C4.60107 8.5 2.125 10.9761 2.125 14C2.125 15.5308 2.78027 16.9111 3.80078 17.9102C1.96924 19.1509 0.75 21.2617 0.75 23.625H3.5C3.5 21.3315 5.33154 19.5 7.625 19.5C9.91846 19.5 11.75 21.3315 11.75 23.625H14.5C14.5 21.2617 13.2808 19.1509 11.4492 17.9102C12.4697 16.9111 13.125 15.5308 13.125 14C13.125 10.9761 10.6489 8.5 7.625 8.5ZM14.5 23.625C13.6406 24.7744 13.125 26.2192 13.125 27.75H15.875C15.875 25.4565 17.7065 23.625 20 23.625C22.2935 23.625 24.125 25.4565 24.125 27.75H26.875C26.875 26.2192 26.3594 24.7744 25.5 23.625C25.0327 23.002 24.4688 22.4702 23.8242 22.0352C24.8447 21.0361 25.5 19.6558 25.5 18.125C25.5 15.1011 23.0239 12.625 20 12.625C16.9761 12.625 14.5 15.1011 14.5 18.125C14.5 19.6558 15.1553 21.0361 16.1758 22.0352C15.5312 22.4702 14.9673 23.002 14.5 23.625ZM25.5 23.625H28.25C28.25 21.3315 30.0815 19.5 32.375 19.5C34.6685 19.5 36.5 21.3315 36.5 23.625H39.25C39.25 21.2617 38.0308 19.1509 36.1992 17.9102C37.2197 16.9111 37.875 15.5308 37.875 14C37.875 10.9761 35.3989 8.5 32.375 8.5C29.3511 8.5 26.875 10.9761 26.875 14C26.875 15.5308 27.5303 16.9111 28.5508 17.9102C26.7192 19.1509 25.5 21.2617 25.5 23.625ZM7.625 11.25C9.16113 11.25 10.375 12.4639 10.375 14C10.375 15.5361 9.16113 16.75 7.625 16.75C6.08887 16.75 4.875 15.5361 4.875 14C4.875 12.4639 6.08887 11.25 7.625 11.25ZM32.375 11.25C33.9111 11.25 35.125 12.4639 35.125 14C35.125 15.5361 33.9111 16.75 32.375 16.75C30.8389 16.75 29.625 15.5361 29.625 14C29.625 12.4639 30.8389 11.25 32.375 11.25ZM20 15.375C21.5361 15.375 22.75 16.5889 22.75 18.125C22.75 19.6611 21.5361 20.875 20 20.875C18.4639 20.875 17.25 19.6611 17.25 18.125C17.25 16.5889 18.4639 15.375 20 15.375Z" fill="#7C5B27"/>
</svg>
