<svg width="1920" height="1238" viewBox="0 0 1920 1238" fill="none" xmlns="http://www.w3.org/2000/svg">
<g style="mix-blend-mode:darken">
<path d="M-528.487 628.263C906.893 959.339 450.195 84.5495 2018.52 659.233" stroke="#BB7F2B" stroke-width="262"/>
</g>
</svg>